latitude,longitude,altitude,geometry,city,country,region,geopoint,accentcity,population
37.9833333,23.7333333,,Point,athens,gr,35,"37.9833333,23.7333333",Athens,729139
41.398371,2.1741,,Point,barcelona,es,56,"41.398371,2.1741",Barcelona,1570378
44.433333,26.1,,Point,bucharest,ro,10,"44.433333,26.1",Bucharest,1877155
52.516667,13.4,,Point,berlin,de,16,"52.516667,13.4",Berlin,3398362
51.216667,6.766667,,Point,dusseldorf,de,07,"51.216667,6.766667",Düsseldorf,577139
54.36085,18.658291,,Point,gdansk,pl,82,"54.36085,18.658291",Gdansk,461865
60.175556,24.934167,,Point,helsinki,fi,13,"60.175556,24.934167",Helsinki,558457
41.018611,28.964722,,Point,istanbul,tr,34,"41.018611,28.964722",Istanbul,9797536